stesiam – Statistics of Statistics’ Graduates
…
`summarise()` has grouped output by 'Category'. You can override using the
`.groups` argument.

# A tibble: 26 × 3
# Groups:   Category [2]
   Category Year      total_pct
   <chr>    <chr>         <dbl>
 1 A        2009-2010      60.7
 2 A        2010-2011      56.9
 3 A        2011-2012      55.7
 4 A        2012-2013      56.1
 5 A        2013-2014      55.2
 6 A        2014-2015      67.2
 7 A        2015-2016      51.7
 8 A        2016-2017      31.9
 9 A        2017-2018      41.2
10 A        2018-2019      25.9
# ℹ 16 more rows
…
