stesiam - Statistics of Statistics Graduates
…
Warning in admitted_students$Entry_exams %>% as.integer(): NAs introduced by
coercion

admitted_students$Other = admitted_students$Other %>% as.integer()

rownames(admitted_students) = 1:nrow(admitted_students)

admitted_students %>% 
  pivot_longer(
    cols = !Year, 
    names_to = "Admission_Type", 
    values_to = "count"
  )

# A tibble: 100 × 3
   Year      Admission_Type count
   <chr>     <chr>          <int>
 1 2003-2004 Main_exams       183
 2 2003-2004 Transfer          15
 3 2003-2004 Entry_exams        1
 4 2003-2004 Other             17
 5 2003-2004 Total            216
 6 2004-2005 Main_exams       181
 7 2004-2005 Transfer          21
 8 2004-2005 Entry_exams        1
 9 2004-2005 Other             16
10 2004-2005 Total            219
# ℹ 90 more rows
…
